%YAML 1.1
%TAG !u! tag:unity3d.com,2011:
--- !u!1045 &1
EditorBuildSettings:
  m_ObjectHideFlags: 0
  serializedVersion: 2
  m_Scenes:
  - enabled: 1
    path: "Assets/_Scenes/1-D\xE9couverte.unity"
    guid: 05e5624ec65dca24f85a6e1c94aa0851
  - enabled: 1
    path: Assets/_Scenes/2-Souris.unity
    guid: c5377f1e851b52b4b8ce6bdce5d8de76
  - enabled: 1
    path: Assets/_Scenes/3-CreationduMal.unity
    guid: f84aac8627d95db4cb12d5ff315aedc5
