%YAML 1.1
%TAG !u! tag:unity3d.com,2011:
--- !u!21 &2100000
Material:
  serializedVersion: 6
  m_ObjectHideFlags: 0
  m_PrefabParentObject: {fileID: 0}
  m_PrefabInternal: {fileID: 0}
  m_Name: RollerBallWhite
  m_Shader: {fileID: 45, guid: 0000000000000000f000000000000000, type: 0}
  m_ShaderKeywords: _EMISSION _LIGHTMAPPING_BAKED _LIGHTMAPPING_STATIC_LIGHTMAPS _UVPRIM_UV1
    _UVSEC_UV1
  m_LightmapFlags: 0
  m_EnableInstancingVariants: 0
  m_DoubleSidedGI: 0
  m_CustomRenderQueue: -1
  stringTagMap: {}
  disabledShaderPasses: []
  m_SavedProperties:
    serializedVersion: 3
    m_TexEnvs:
    - _BumpMap:
        m_Texture: {fileID: 0}
        m_Scale: {x: 1, y: 1}
        m_Offset: {x: 0, y: 0}
    - _DetailAlbedoMap:
        m_Texture: {fileID: 0}
        m_Scale: {x: 1, y: 1}
        m_Offset: {x: 0, y: 0}
    - _DetailMask:
        m_Texture: {fileID: 0}
        m_Scale: {x: 1, y: 1}
        m_Offset: {x: 0, y: 0}
    - _DetailNormalMap:
        m_Texture: {fileID: 0}
        m_Scale: {x: 1, y: 1}
        m_Offset: {x: 0, y: 0}
    - _EmissionMap:
        m_Texture: {fileID: 0}
        m_Scale: {x: 1, y: 1}
        m_Offset: {x: 0, y: 0}
    - _MainTex:
        m_Texture: {fileID: 0}
        m_Scale: {x: 1, y: 1}
        m_Offset: {x: 0, y: 0}
    - _MetallicGlossMap:
        m_Texture: {fileID: 0}
        m_Scale: {x: 1, y: 1}
        m_Offset: {x: 0, y: 0}
    - _Occlusion:
        m_Texture: {fileID: 0}
        m_Scale: {x: 1, y: 1}
        m_Offset: {x: 0, y: 0}
    - _OcclusionMap:
        m_Texture: {fileID: 0}
        m_Scale: {x: 1, y: 1}
        m_Offset: {x: 0, y: 0}
    - _ParallaxMap:
        m_Texture: {fileID: 0}
        m_Scale: {x: 1, y: 1}
        m_Offset: {x: 0, y: 0}
    - _SpecGlossMap:
        m_Texture: {fileID: 0}
        m_Scale: {x: 1, y: 1}
        m_Offset: {x: 0, y: 0}
    m_Floats:
    - _AlphaTestRef: 0.5
    - _BumpScale: 1
    - _Cutoff: 0.5
    - _DetailAlbedoMultiplier: 2
    - _DetailMode: 0
    - _DetailNormalMapScale: 1
    - _DstBlend: 0
    - _EmissionScale: 1
    - _EmissionScaleUI: 1
    - _GlossMapScale: 1
    - _Glossiness: 0.2
    - _GlossyReflections: 1
    - _Lightmapping: 0
    - _Metallic: 0
    - _Mode: 0
    - _OcclusionStrength: 1
    - _Parallax: 0.02
    - _SmoothnessTextureChannel: 0
    - _SpecularHighlights: 1
    - _SrcBlend: 1
    - _UVPrim: 0
    - _UVSec: 0
    - _ZWrite: 1
    m_Colors:
    - _Color: {r: 0.41176468, g: 0.95131844, b: 1, a: 1}
    - _EmissionColor: {r: 0, g: 1.5862064, b: 2, a: 1}
    - _EmissionColorUI: {r: 0, g: 0, b: 0, a: 1}
    - _EmissionColorWithMapUI: {r: 1, g: 1, b: 1, a: 1}
    - _SpecColor: {r: 0.23529412, g: 0.23529412, b: 0.23529412, a: 1}
    - _SpecularColor: {r: 0.058823526, g: 0.058823526, b: 0.058823526, a: 1}
